Tratamento dos dados dos grupos
…
---

## Entradas

.panelset[

.panel[.panel-name[profissões]

```r
professions
```

```
## # A tibble: 10 x 2
##   name              profession           
##   <chr>             <chr>                
## 1 Ada Lovelace      Mathematician        
## 2 Marie Curie       Physicist and Chemist
## 3 Janaki Ammal      Botanist             
## 4 Chien-Shiung Wu   Physicist            
## 5 Katherine Johnson Mathematician        
## 6 Rosalind Franklin Chemist              
## # ... with 4 more rows
```
]

.panel[.panel-name[datas]

```r
dates
```

```
## # A tibble: 8 x 3
##   name              birth_year death_year
##   <chr>                  <dbl>      <dbl>
## 1 Janaki Ammal            1897       1984
## 2 Chien-Shiung Wu         1912       1997
## 3 Katherine Johnson       1918       2020
## 4 Rosalind Franklin       1920       1958
## 5 Vera Rubin              1928       2016
## 6 Gladys West             1930         NA
## # ... with 2 more rows
```
]

.panel[.panel-name[trabalhos]

```r
works
```

```
## # A tibble: 9 x 2
##   name              known_for                                    
##   <chr>             <chr>                                        
## 1 Ada Lovelace      first computer algorithm                     
## 2 Marie Curie       theory of radioactivity,  discovery of eleme~
## 3 Janaki Ammal      hybrid species, biodiversity protection      
## 4 Chien-Shiung Wu   confim and refine theory of radioactive beta~
## 5 Katherine Johnson calculations of orbital mechanics critical t~
## 6 Vera Rubin        existence of dark matter                     
## # ... with 3 more rows
```
]

]

---

## Resultado desejado

```
## # A tibble: 10 x 5
##   name              profession  birth_year death_year known_for  
##   <chr>             <chr>            <dbl>      <dbl> <chr>      
## 1 Ada Lovelace      Mathematic~         NA         NA first comp~
## 2 Marie Curie       Physicist ~         NA         NA theory of ~
## 3 Janaki Ammal      Botanist          1897       1984 hybrid spe~
## 4 Chien-Shiung Wu   Physicist         1912       1997 confim and~
## 5 Katherine Johnson Mathematic~       1918       2020 calculatio~
## 6 Rosalind Franklin Chemist           1920       1958 <NA>       
## # ... with 4 more rows
```
…
---

## `left_join()`

```r
professions %>%
* left_join(dates)
```

```
## # A tibble: 10 x 4
##   name              profession            birth_year death_year
##   <chr>             <chr>                      <dbl>      <dbl>
## 1 Ada Lovelace      Mathematician                 NA         NA
## 2 Marie Curie       Physicist and Chemist         NA         NA
## 3 Janaki Ammal      Botanist                    1897       1984
## 4 Chien-Shiung Wu   Physicist                   1912       1997
## 5 Katherine Johnson Mathematician               1918       2020
## 6 Rosalind Franklin Chemist                     1920       1958
## # ... with 4 more rows
```
…
---

## `right_join()`

```r
professions %>%
* right_join(dates)
```

```
## # A tibble: 8 x 4
##   name              profession    birth_year death_year
##   <chr>             <chr>              <dbl>      <dbl>
## 1 Janaki Ammal      Botanist            1897       1984
## 2 Chien-Shiung Wu   Physicist           1912       1997
## 3 Katherine Johnson Mathematician       1918       2020
## 4 Rosalind Franklin Chemist             1920       1958
## 5 Vera Rubin        Astronomer          1928       2016
## 6 Gladys West       Mathematician       1930         NA
## # ... with 2 more rows
```
…
---

## `full_join()`

```r
dates %>%
* full_join(works)
```

```
## # A tibble: 10 x 4
##   name              birth_year death_year known_for              
##   <chr>                  <dbl>      <dbl> <chr>                  
## 1 Janaki Ammal            1897       1984 hybrid species, biodiv~
## 2 Chien-Shiung Wu         1912       1997 confim and refine theo~
## 3 Katherine Johnson       1918       2020 calculations of orbita~
## 4 Rosalind Franklin       1920       1958 <NA>                   
## 5 Vera Rubin              1928       2016 existence of dark matt~
## 6 Gladys West             1930         NA mathematical modeling ~
## # ... with 4 more rows
```
…
---

## `inner_join()`

```r
dates %>%
* inner_join(works)
```

```
## # A tibble: 7 x 4
##   name               birth_year death_year known_for             
##   <chr>                   <dbl>      <dbl> <chr>                 
## 1 Janaki Ammal             1897       1984 hybrid species, biodi~
## 2 Chien-Shiung Wu          1912       1997 confim and refine the~
## 3 Katherine Johnson        1918       2020 calculations of orbit~
## 4 Vera Rubin               1928       2016 existence of dark mat~
## 5 Gladys West              1930         NA mathematical modeling~
## 6 Flossie Wong-Staal       1947         NA first scientist to cl~
## # ... with 1 more row
```
…
---

## `semi_join()`

```r
dates %>%
* semi_join(works)
```

```
## # A tibble: 7 x 3
##   name               birth_year death_year
##   <chr>                   <dbl>      <dbl>
## 1 Janaki Ammal             1897       1984
## 2 Chien-Shiung Wu          1912       1997
## 3 Katherine Johnson        1918       2020
## 4 Vera Rubin               1928       2016
## 5 Gladys West              1930         NA
## 6 Flossie Wong-Staal       1947         NA
## # ... with 1 more row
```
…
---

## Realizando a junção dos dados

```r
professions %>%
  left_join(dates) %>%
  left_join(works)
```

```
## # A tibble: 10 x 5
##   name              profession  birth_year death_year known_for  
##   <chr>             <chr>            <dbl>      <dbl> <chr>      
## 1 Ada Lovelace      Mathematic~         NA         NA first comp~
## 2 Marie Curie       Physicist ~         NA         NA theory of ~
## 3 Janaki Ammal      Botanist          1897       1984 hybrid spe~
## 4 Chien-Shiung Wu   Physicist         1912       1997 confim and~
## 5 Katherine Johnson Mathematic~       1918       2020 calculatio~
## 6 Rosalind Franklin Chemist           1920       1958 <NA>       
## # ... with 4 more rows
```
…
